{
  "__type__": "cc.AnimationClip",
  "_name": "PlayerDead",
  "_objFlags": 0,
  "_rawFiles": null,
  "_duration": 0.4,
  "sample": 60,
  "speed": 2,
  "wrapMode": "1",
  "curveData": {
    "props": {
      "scale": [
        {
          "frame": 0,
          "value": {
            "__type__": "cc.Vec2",
            "x": 1,
            "y": 1
          }
        },
        {
          "frame": 0.13333333333333333,
          "value": {
            "__type__": "cc.Vec2",
            "x": 1.35,
            "y": 1.35
          }
        },
        {
          "frame": 0.26666666666666666,
          "value": {
            "__type__": "cc.Vec2",
            "x": 1.1,
            "y": 1.1
          }
        },
        {
          "frame": 0.4,
          "value": {
            "__type__": "cc.Vec2",
            "x": 1.5,
            "y": 1.5
          }
        }
      ]
    }
  },
  "events": []
}